FPGA/simulation/qsim/pbi_bridge.msim.vcd
$comment
	File created using the following command:
		vcd file pbi_bridge.msim.vcd -direction
$end
$date
	Sat Apr 08 09:06:26 2017
$end
$version
	ModelSim Version 10.5b
$end
$timescale
	1ps
$end

$scope module pbi_bridge_vhd_vec_tst $end
$var wire 1 ! addr [15] $end
$var wire 1 " addr [14] $end
$var wire 1 # addr [13] $end
$var wire 1 $ addr [12] $end
$var wire 1 % addr [11] $end
$var wire 1 & addr [10] $end
$var wire 1 ' addr [9] $end
$var wire 1 ( addr [8] $end
$var wire 1 ) addr [7] $end
$var wire 1 * addr [6] $end
$var wire 1 + addr [5] $end
$var wire 1 , addr [4] $end
$var wire 1 - addr [3] $end
$var wire 1 . addr [2] $end
$var wire 1 / addr [1] $end
$var wire 1 0 addr [0] $end
$var wire 1 1 clk_50 $end
$var wire 1 2 data [7] $end
$var wire 1 3 data [6] $end
$var wire 1 4 data [5] $end
$var wire 1 5 data [4] $end
$var wire 1 6 data [3] $end
$var wire 1 7 data [2] $end
$var wire 1 8 data [1] $end
$var wire 1 9 data [0] $end
$var wire 1 : data_dir $end
$var wire 1 ; extenb $end
$var wire 1 < n_data_oe $end
$var wire 1 = n_extsel $end
$var wire 1 > n_irq $end
$var wire 1 ? n_mpd $end
$var wire 1 @ n_rdy $end
$var wire 1 A n_reset $end
$var wire 1 B phi2 $end
$var wire 1 C phi2_early $end
$var wire 1 D rw $end

$scope module i1 $end
$var wire 1 E gnd $end
$var wire 1 F vcc $end
$var wire 1 G unknown $end
$var wire 1 H devoe $end
$var wire 1 I devclrn $end
$var wire 1 J devpor $end
$var wire 1 K ww_devoe $end
$var wire 1 L ww_devclrn $end
$var wire 1 M ww_devpor $end
$var wire 1 N ww_clk_50 $end
$var wire 1 O ww_phi2_early $end
$var wire 1 P ww_phi2 $end
$var wire 1 Q ww_rw $end
$var wire 1 R ww_addr [15] $end
$var wire 1 S ww_addr [14] $end
$var wire 1 T ww_addr [13] $end
$var wire 1 U ww_addr [12] $end
$var wire 1 V ww_addr [11] $end
$var wire 1 W ww_addr [10] $end
$var wire 1 X ww_addr [9] $end
$var wire 1 Y ww_addr [8] $end
$var wire 1 Z ww_addr [7] $end
$var wire 1 [ ww_addr [6] $end
$var wire 1 \ ww_addr [5] $end
$var wire 1 ] ww_addr [4] $end
$var wire 1 ^ ww_addr [3] $end
$var wire 1 _ ww_addr [2] $end
$var wire 1 ` ww_addr [1] $end
$var wire 1 a ww_addr [0] $end
$var wire 1 b ww_data [7] $end
$var wire 1 c ww_data [6] $end
$var wire 1 d ww_data [5] $end
$var wire 1 e ww_data [4] $end
$var wire 1 f ww_data [3] $end
$var wire 1 g ww_data [2] $end
$var wire 1 h ww_data [1] $end
$var wire 1 i ww_data [0] $end
$var wire 1 j ww_data_dir $end
$var wire 1 k ww_n_data_oe $end
$var wire 1 l ww_n_reset $end
$var wire 1 m ww_extenb $end
$var wire 1 n ww_n_extsel $end
$var wire 1 o ww_n_mpd $end
$var wire 1 p ww_n_irq $end
$var wire 1 q ww_n_rdy $end
$var wire 1 r \~QUARTUS_CREATED_ADC1~_CHSEL_bus\ [4] $end
$var wire 1 s \~QUARTUS_CREATED_ADC1~_CHSEL_bus\ [3] $end
$var wire 1 t \~QUARTUS_CREATED_ADC1~_CHSEL_bus\ [2] $end
$var wire 1 u \~QUARTUS_CREATED_ADC1~_CHSEL_bus\ [1] $end
$var wire 1 v \~QUARTUS_CREATED_ADC1~_CHSEL_bus\ [0] $end
$var wire 1 w \phi2_early~reg0clkctrl_INCLK_bus\ [3] $end
$var wire 1 x \phi2_early~reg0clkctrl_INCLK_bus\ [2] $end
$var wire 1 y \phi2_early~reg0clkctrl_INCLK_bus\ [1] $end
$var wire 1 z \phi2_early~reg0clkctrl_INCLK_bus\ [0] $end
$var wire 1 { \clk_50~inputclkctrl_INCLK_bus\ [3] $end
$var wire 1 | \clk_50~inputclkctrl_INCLK_bus\ [2] $end
$var wire 1 } \clk_50~inputclkctrl_INCLK_bus\ [1] $end
$var wire 1 ~ \clk_50~inputclkctrl_INCLK_bus\ [0] $end
$var wire 1 !! \data[2]~17clkctrl_INCLK_bus\ [3] $end
$var wire 1 "! \data[2]~17clkctrl_INCLK_bus\ [2] $end
$var wire 1 #! \data[2]~17clkctrl_INCLK_bus\ [1] $end
$var wire 1 $! \data[2]~17clkctrl_INCLK_bus\ [0] $end
$var wire 1 %! \phi2~inputclkctrl_INCLK_bus\ [3] $end
$var wire 1 &! \phi2~inputclkctrl_INCLK_bus\ [2] $end
$var wire 1 '! \phi2~inputclkctrl_INCLK_bus\ [1] $end
$var wire 1 (! \phi2~inputclkctrl_INCLK_bus\ [0] $end
$var wire 1 )! \n_reset~input_o\ $end
$var wire 1 *! \extenb~input_o\ $end
$var wire 1 +! \~QUARTUS_CREATED_GND~I_combout\ $end
$var wire 1 ,! \~QUARTUS_CREATED_UNVM~~busy\ $end
$var wire 1 -! \~QUARTUS_CREATED_ADC1~~eoc\ $end
$var wire 1 .! \data[0]~output_o\ $end
$var wire 1 /! \data[1]~output_o\ $end
$var wire 1 0! \data[2]~output_o\ $end
$var wire 1 1! \data[3]~output_o\ $end
$var wire 1 2! \data[4]~output_o\ $end
$var wire 1 3! \data[5]~output_o\ $end
$var wire 1 4! \data[6]~output_o\ $end
$var wire 1 5! \data[7]~output_o\ $end
$var wire 1 6! \phi2_early~output_o\ $end
$var wire 1 7! \data_dir~output_o\ $end
$var wire 1 8! \n_data_oe~output_o\ $end
$var wire 1 9! \n_extsel~output_o\ $end
$var wire 1 :! \n_mpd~output_o\ $end
$var wire 1 ;! \n_irq~output_o\ $end
$var wire 1 <! \n_rdy~output_o\ $end
$var wire 1 =! \phi2~input_o\ $end
$var wire 1 >! \phi2~inputclkctrl_outclk\ $end
$var wire 1 ?! \addr[8]~input_o\ $end
$var wire 1 @! \addr[0]~input_o\ $end
$var wire 1 A! \addr[9]~input_o\ $end
$var wire 1 B! \addr[10]~input_o\ $end
$var wire 1 C! \addr[14]~input_o\ $end
$var wire 1 D! \addr[12]~input_o\ $end
$var wire 1 E! \addr[15]~input_o\ $end
$var wire 1 F! \addr[13]~input_o\ $end
$var wire 1 G! \Equal2~0_combout\ $end
$var wire 1 H! \addr[11]~input_o\ $end
$var wire 1 I! \process_1~0_combout\ $end
$var wire 1 J! \dev_ram_act~q\ $end
$var wire 1 K! \data[0]~16_combout\ $end
$var wire 1 L! \addr[3]~input_o\ $end
$var wire 1 M! \addr[4]~input_o\ $end
$var wire 1 N! \addr[2]~input_o\ $end
$var wire 1 O! \LessThan1~0_combout\ $end
$var wire 1 P! \addr[6]~input_o\ $end
$var wire 1 Q! \addr[1]~input_o\ $end
$var wire 1 R! \addr[5]~input_o\ $end
$var wire 1 S! \addr[7]~input_o\ $end
$var wire 1 T! \Equal2~1_combout\ $end
$var wire 1 U! \Equal2~2_combout\ $end
$var wire 1 V! \LessThan4~0_combout\ $end
$var wire 1 W! \process_1~1_combout\ $end
$var wire 1 X! \dev_reg_act~0_combout\ $end
$var wire 1 Y! \dev_reg_act~q\ $end
$var wire 1 Z! \clk_50~input_o\ $end
$var wire 1 [! \clk_50~inputclkctrl_outclk\ $end
$var wire 1 \! \clk_counter[2]~2_combout\ $end
$var wire 1 ]! \clk_counter[3]~0_combout\ $end
$var wire 1 ^! \clk_counter[0]~3_combout\ $end
$var wire 1 _! \clk_counter[1]~1_combout\ $end
$var wire 1 `! \Equal0~0_combout\ $end
$var wire 1 a! \phi2_early~reg0_q\ $end
$var wire 1 b! \phi2_early~reg0clkctrl_outclk\ $end
$var wire 1 c! \data[4]~input_o\ $end
$var wire 1 d! \hw_sel[4]~feeder_combout\ $end
$var wire 1 e! \Equal2~3_combout\ $end
$var wire 1 f! \hw_sel_act~q\ $end
$var wire 1 g! \rw~input_o\ $end
$var wire 1 h! \rw_latch~q\ $end
$var wire 1 i! \hw_sel[3]~0_combout\ $end
$var wire 1 j! \data[5]~input_o\ $end
$var wire 1 k! \hw_sel[5]~feeder_combout\ $end
$var wire 1 l! \data[6]~input_o\ $end
$var wire 1 m! \data[7]~input_o\ $end
$var wire 1 n! \hw_sel[7]~feeder_combout\ $end
$var wire 1 o! \Equal1~1_combout\ $end
$var wire 1 p! \data[3]~input_o\ $end
$var wire 1 q! \hw_sel[3]~feeder_combout\ $end
$var wire 1 r! \data[1]~input_o\ $end
$var wire 1 s! \hw_sel[1]~feeder_combout\ $end
$var wire 1 t! \data[0]~input_o\ $end
$var wire 1 u! \data[2]~input_o\ $end
$var wire 1 v! \hw_sel[2]~feeder_combout\ $end
$var wire 1 w! \Equal1~0_combout\ $end
$var wire 1 x! \process_1~8_combout\ $end
$var wire 1 y! \data[2]~18_combout\ $end
$var wire 1 z! \process_1~2_combout\ $end
$var wire 1 {! \process_1~3_combout\ $end
$var wire 1 |! \process_1~4_combout\ $end
$var wire 1 }! \dev_rom_act~0_combout\ $end
$var wire 1 ~! \dev_rom_act~q\ $end
$var wire 1 !" \data[2]~17_combout\ $end
$var wire 1 "" \data[2]~17clkctrl_outclk\ $end
$var wire 1 #" \data[0]$latch~combout\ $end
$var wire 1 $" \data[7]_429~combout\ $end
$var wire 1 %" \data[1]~19_combout\ $end
$var wire 1 &" \data[1]$latch~combout\ $end
$var wire 1 '" \addr_latch[10]~feeder_combout\ $end
$var wire 1 (" \data[2]~20_combout\ $end
$var wire 1 )" \data[2]$latch~combout\ $end
$var wire 1 *" \addr_latch[11]~feeder_combout\ $end
$var wire 1 +" \data[3]~21_combout\ $end
$var wire 1 ," \data[3]$latch~combout\ $end
$var wire 1 -" \addr_latch[12]~feeder_combout\ $end
$var wire 1 ." \data[4]~22_combout\ $end
$var wire 1 /" \data[4]$latch~combout\ $end
$var wire 1 0" \addr_latch[13]~feeder_combout\ $end
$var wire 1 1" \data[5]~23_combout\ $end
$var wire 1 2" \data[5]$latch~combout\ $end
$var wire 1 3" \data[6]~24_combout\ $end
$var wire 1 4" \data[6]$latch~combout\ $end
$var wire 1 5" \data[7]~25_combout\ $end
$var wire 1 6" \data[7]$latch~combout\ $end
$var wire 1 7" \process_1~5_combout\ $end
$var wire 1 8" \process_1~6_combout\ $end
$var wire 1 9" \data_dir~0_combout\ $end
$var wire 1 :" \data_dir~reg0_q\ $end
$var wire 1 ;" \process_1~7_combout\ $end
$var wire 1 <" \n_data_oe~reg0_q\ $end
$var wire 1 =" clk_counter [3] $end
$var wire 1 >" clk_counter [2] $end
$var wire 1 ?" clk_counter [1] $end
$var wire 1 @" clk_counter [0] $end
$var wire 1 A" hw_sel [7] $end
$var wire 1 B" hw_sel [6] $end
$var wire 1 C" hw_sel [5] $end
$var wire 1 D" hw_sel [4] $end
$var wire 1 E" hw_sel [3] $end
$var wire 1 F" hw_sel [2] $end
$var wire 1 G" hw_sel [1] $end
$var wire 1 H" hw_sel [0] $end
$var wire 1 I" addr_latch [15] $end
$var wire 1 J" addr_latch [14] $end
$var wire 1 K" addr_latch [13] $end
$var wire 1 L" addr_latch [12] $end
$var wire 1 M" addr_latch [11] $end
$var wire 1 N" addr_latch [10] $end
$var wire 1 O" addr_latch [9] $end
$var wire 1 P" addr_latch [8] $end
$var wire 1 Q" addr_latch [7] $end
$var wire 1 R" addr_latch [6] $end
$var wire 1 S" addr_latch [5] $end
$var wire 1 T" addr_latch [4] $end
$var wire 1 U" addr_latch [3] $end
$var wire 1 V" addr_latch [2] $end
$var wire 1 W" addr_latch [1] $end
$var wire 1 X" addr_latch [0] $end
$var wire 1 Y" \ALT_INV_n_data_oe~reg0_q\ $end
$var wire 1 Z" \ALT_INV_data_dir~reg0_q\ $end
$var wire 1 [" \ALT_INV_phi2_early~reg0clkctrl_outclk\ $end
$upscope $end
$upscope $end
$enddefinitions $end
#0
$dumpvars
11
1:
x;
1<
1=
1>
1?
1@
1A
0B
0C
0D
0E
1F
xG
1H
1I
1J
1K
1L
1M
1N
0O
0P
0Q
1j
1k
1l
xm
1n
1o
1p
1q
1)!
x*!
0+!
z,!
z-!
z.!
z/!
z0!
z1!
z2!
z3!
z4!
z5!
06!
17!
18!
19!
1:!
1;!
1<!
0=!
0>!
0?!
0@!
0A!
0B!
0C!
0D!
0E!
0F!
0G!
0H!
0I!
0J!
0K!
0L!
0M!
0N!
0O!
0P!
0Q!
0R!
0S!
0T!
0U!
1V!
0W!
0X!
0Y!
1Z!
1[!
0\!
0]!
1^!
0_!
1`!
0a!
0b!
xc!
xd!
0e!
0f!
0g!
0h!
0i!
xj!
xk!
xl!
xm!
xn!
0o!
xp!
xq!
xr!
xs!
xt!
xu!
xv!
1w!
0x!
1y!
1z!
0{!
0|!
0}!
0~!
0!"
0""
0#"
0$"
0%"
1&"
0'"
0("
0)"
0*"
0+"
0,"
0-"
0."
0/"
00"
01"
12"
03"
04"
05"
06"
07"
08"
09"
0:"
0;"
0<"
1Y"
1Z"
1["
0!
0"
0#
0$
0%
0&
0'
0(
0)
0*
0+
0,
0-
0.
0/
00
x2
x3
x4
x5
x6
x7
x8
x9
0R
0S
0T
0U
0V
0W
0X
0Y
0Z
0[
0\
0]
0^
0_
0`
0a
0="
0>"
0?"
0@"
0A"
0B"
0C"
0D"
0E"
0F"
0G"
0H"
0I"
0J"
0K"
0L"
0M"
0N"
0O"
0P"
0Q"
0R"
0S"
0T"
0U"
0V"
0W"
0X"
1%!
1&!
1'!
0(!
1{
1|
1}
1~
1w
1x
1y
0z
1!!
1"!
1#!
0$!
0r
0s
0t
0u
0v
xb
xc
xd
xe
xf
xg
xh
xi
$end
#1000
01
0N
0Z!
0~
0[!
#11000
11
1N
1Z!
1~
1[!
#21000
01
0N
0Z!
0~
0[!
#31000
11
1N
1Z!
1~
1[!
#41000
01
0N
0Z!
0~
0[!
#51000
11
1N
1Z!
1~
1[!
#61000
01
0N
0Z!
0~
0[!
#71000
11
1N
1Z!
1~
1[!
#80000
0A
0l
0)!
#81000
01
0N
0Z!
0~
0[!
#91000
11
1N
1Z!
1~
1[!
#101000
01
0N
0Z!
0~
0[!
#111000
11
1N
1Z!
1~
1[!
#121000
01
0N
0Z!
0~
0[!
#131000
11
1N
1Z!
1~
1[!
#141000
01
0N
0Z!
0~
0[!
#151000
11
1N
1Z!
1~
1[!
#161000
01
0N
0Z!
0~
0[!
#171000
11
1N
1Z!
1~
1[!
#181000
01
0N
0Z!
0~
0[!
#191000
11
1N
1Z!
1~
1[!
#201000
01
0N
0Z!
0~
0[!
#211000
11
1N
1Z!
1~
1[!
#221000
01
0N
0Z!
0~
0[!
#231000
11
1N
1Z!
1~
1[!
#241000
01
0N
0Z!
0~
0[!
#251000
11
1N
1Z!
1~
1[!
#261000
01
0N
0Z!
0~
0[!
#271000
11
1N
1Z!
1~
1[!
#279000
1B
1P
1=!
1(!
1>!
#281000
01
0N
0Z!
0~
0[!
#291000
11
1N
1Z!
1~
1a!
1z
16!
1[!
1O
1C
1b!
1@"
0["
0^!
1_!
#301000
01
0N
0Z!
0~
0[!
#311000
11
1N
1Z!
1~
1[!
0@"
1?"
1^!
#321000
01
0N
0Z!
0~
0[!
#331000
11
1N
1Z!
1~
1[!
1@"
1\!
0^!
0_!
#341000
01
0N
0Z!
0~
0[!
#351000
11
1N
1Z!
1~
1[!
1>"
0@"
0?"
1^!
#361000
01
0N
0Z!
0~
0[!
#371000
11
1N
1Z!
1~
1[!
1@"
0^!
1_!
#381000
01
0N
0Z!
0~
0[!
#391000
11
1N
1Z!
1~
1[!
0@"
1?"
1^!
#401000
01
0N
0Z!
0~
0[!
#411000
11
1N
1Z!
1~
1[!
1@"
0\!
1]!
0^!
0_!
#421000
01
0N
0Z!
0~
0[!
#431000
11
1N
1Z!
1~
1[!
0>"
1="
0@"
0?"
1^!
#441000
01
0N
0Z!
0~
0[!
#451000
11
1N
1Z!
1~
1[!
1@"
0^!
1_!
#461000
01
0N
0Z!
0~
0[!
#471000
11
1N
1Z!
1~
1[!
0@"
1?"
0`!
#481000
01
0N
0Z!
0~
0[!
#491000
11
1N
1Z!
1~
0a!
0z
06!
1[!
0O
0C
0b!
1["
#501000
01
0N
0Z!
0~
0[!
#511000
11
1N
1Z!
1~
1[!
#521000
01
0N
0Z!
0~
0[!
#531000
11
1N
1Z!
1~
1[!
#541000
01
0N
0Z!
0~
0[!
#551000
11
1N
1Z!
1~
1[!
#558000
0B
0P
0=!
0(!
0>!
0="
0?"
0_!
0]!
1^!
1`!
#561000
01
0N
0Z!
0~
0[!
#571000
11
1N
1Z!
1~
1[!
#581000
01
0N
0Z!
0~
0[!
#591000
11
1N
1Z!
1~
1[!
#601000
01
0N
0Z!
0~
0[!
#611000
11
1N
1Z!
1~
1[!
#621000
01
0N
0Z!
0~
0[!
#631000
11
1N
1Z!
1~
1[!
#641000
01
0N
0Z!
0~
0[!
#651000
11
1N
1Z!
1~
1[!
#661000
01
0N
0Z!
0~
0[!
#671000
11
1N
1Z!
1~
1[!
#681000
01
0N
0Z!
0~
0[!
#691000
11
1N
1Z!
1~
1[!
#701000
01
0N
0Z!
0~
0[!
#711000
11
1N
1Z!
1~
1[!
#721000
01
0N
0Z!
0~
0[!
#731000
11
1N
1Z!
1~
1[!
#741000
01
0N
0Z!
0~
0[!
#751000
11
1N
1Z!
1~
1[!
#761000
01
0N
0Z!
0~
0[!
#771000
11
1N
1Z!
1~
1[!
#781000
01
0N
0Z!
0~
0[!
#791000
11
1N
1Z!
1~
1[!
#801000
01
0N
0Z!
0~
0[!
#811000
11
1N
1Z!
1~
1[!
#821000
01
0N
0Z!
0~
0[!
#831000
11
1N
1Z!
1~
1[!
#837000
1B
1P
1=!
1(!
1>!
#841000
01
0N
0Z!
0~
0[!
#851000
11
1N
1Z!
1~
1a!
1z
16!
1[!
1O
1C
1b!
1@"
0["
0^!
1_!
#861000
01
0N
0Z!
0~
0[!
#871000
11
1N
1Z!
1~
1[!
0@"
1?"
1^!
#881000
01
0N
0Z!
0~
0[!
#891000
11
1N
1Z!
1~
1[!
1@"
1\!
0^!
0_!
#901000
01
0N
0Z!
0~
0[!
#911000
11
1N
1Z!
1~
1[!
1>"
0@"
0?"
1^!
#921000
01
0N
0Z!
0~
0[!
#931000
11
1N
1Z!
1~
1[!
1@"
0^!
1_!
#941000
01
0N
0Z!
0~
0[!
#951000
11
1N
1Z!
1~
1[!
0@"
1?"
1^!
#960000
1A
1l
1)!
#961000
01
0N
0Z!
0~
0[!
#971000
11
1N
1Z!
1~
1[!
1@"
0\!
1]!
0^!
0_!
#981000
01
0N
0Z!
0~
0[!
#991000
11
1N
1Z!
1~
1[!
0>"
1="
0@"
0?"
1^!
#1001000
01
0N
0Z!
0~
0[!
#1011000
11
1N
1Z!
1~
1[!
1@"
0^!
1_!
#1021000
01
0N
0Z!
0~
0[!
#1031000
11
1N
1Z!
1~
1[!
0@"
1?"
0`!
#1041000
01
0N
0Z!
0~
0[!
#1051000
11
1N
1Z!
1~
0a!
0z
06!
1[!
0O
0C
0b!
1["
#1061000
01
0N
0Z!
0~
0[!
#1071000
11
1N
1Z!
1~
1[!
#1081000
01
0N
0Z!
0~
0[!
#1091000
11
1N
1Z!
1~
1[!
#1101000
01
0N
0Z!
0~
0[!
#1111000
11
1N
1Z!
1~
1[!
#1116000
0B
0P
0=!
0(!
0>!
0="
0?"
0_!
0]!
1^!
1`!
#1121000
01
0N
0Z!
0~
0[!
#1131000
11
1N
1Z!
1~
1[!
#1141000
01
0N
0Z!
0~
0[!
#1151000
11
1N
1Z!
1~
1[!
#1160000
1!
1"
1$
1(
1)
1*
1+
1,
1-
1.
1/
10
1a
1`
1_
1^
1]
1\
1[
1Z
1Y
1U
1S
1R
1E!
1C!
1D!
1?!
1S!
1P!
1R!
1M!
1L!
1N!
1Q!
1@!
1O!
1T!
1W!
0z!
1-"
1G!
1X!
17"
1U!
0W!
1e!
1;"
0X!
07"
#1161000
01
0N
0Z!
0~
0[!
#1171000
11
1N
1Z!
1~
1[!
#1181000
01
0N
0Z!
0~
0[!
#1191000
11
1N
1Z!
1~
1[!
#1201000
01
0N
0Z!
0~
0[!
#1211000
11
1N
1Z!
1~
1[!
#1221000
01
0N
0Z!
0~
0[!
#1231000
11
1N
1Z!
1~
1[!
#1241000
01
0N
0Z!
0~
0[!
#1251000
11
1N
1Z!
1~
1[!
#1261000
01
0N
0Z!
0~
0[!
#1271000
11
1N
1Z!
1~
1[!
#1281000
01
0N
0Z!
0~
0[!
#1291000
11
1N
1Z!
1~
1[!
#1301000
01
0N
0Z!
0~
0[!
#1311000
11
1N
1Z!
1~
1[!
#1321000
01
0N
0Z!
0~
0[!
#1331000
11
1N
1Z!
1~
1[!
#1341000
01
0N
0Z!
0~
0[!
#1351000
11
1N
1Z!
1~
1[!
#1361000
01
0N
0Z!
0~
0[!
#1371000
11
1N
1Z!
1~
1[!
#1381000
01
0N
0Z!
0~
0[!
#1391000
11
1N
1Z!
1~
1[!
#1395000
1B
1P
1=!
1(!
1>!
1P"
1X"
1f!
1W"
1V"
1U"
1T"
1L"
1S"
1R"
1J"
1Q"
1I"
1<"
0Y"
15"
13"
11"
1."
1+"
1("
1%"
1i!
1K!
08!
0k
0<
#1401000
01
0N
0Z!
0~
0[!
#1411000
11
1N
1Z!
1~
1a!
1z
16!
1[!
1O
1C
1b!
1@"
0["
0^!
1_!
#1421000
01
0N
0Z!
0~
0[!
#1431000
11
1N
1Z!
1~
1[!
0@"
1?"
1^!
#1441000
01
0N
0Z!
0~
0[!
#1451000
11
1N
1Z!
1~
1[!
1@"
1\!
0^!
0_!
#1461000
01
0N
0Z!
0~
0[!
#1471000
11
1N
1Z!
1~
1[!
1>"
0@"
0?"
1^!
#1481000
01
0N
0Z!
0~
0[!
#1491000
11
1N
1Z!
1~
1[!
1@"
0^!
1_!
#1501000
01
0N
0Z!
0~
0[!
#1511000
11
1N
1Z!
1~
1[!
0@"
1?"
1^!
#1521000
01
0N
0Z!
0~
0[!
#1531000
11
1N
1Z!
1~
1[!
1@"
0\!
1]!
0^!
0_!
#1541000
01
0N
0Z!
0~
0[!
#1551000
11
1N
1Z!
1~
1[!
0>"
1="
0@"
0?"
1^!
#1561000
01
0N
0Z!
0~
0[!
#1571000
11
1N
1Z!
1~
1[!
1@"
0^!
1_!
#1581000
01
0N
0Z!
0~
0[!
#1591000
11
1N
1Z!
1~
1[!
0@"
1?"
0`!
#1601000
01
0N
0Z!
0~
0[!
#1611000
11
1N
1Z!
1~
0a!
0z
06!
1[!
0O
0C
0b!
1["
xD"
xC"
xB"
xA"
xE"
xG"
xH"
xF"
xw!
xo!
#1621000
01
0N
0Z!
0~
0[!
#1631000
11
1N
1Z!
1~
1[!
#1641000
01
0N
0Z!
0~
0[!
#1651000
11
1N
1Z!
1~
1[!
#1661000
01
0N
0Z!
0~
0[!
#1671000
11
1N
1Z!
1~
1[!
#1674000
0B
0P
0=!
0(!
0>!
0="
0?"
0_!
0]!
1^!
1`!
#1681000
01
0N
0Z!
0~
0[!
#1691000
11
1N
1Z!
1~
1[!
#1701000
01
0N
0Z!
0~
0[!
#1711000
11
1N
1Z!
1~
1[!
#1721000
01
0N
0Z!
0~
0[!
#1731000
11
1N
1Z!
1~
1[!
#1741000
01
0N
0Z!
0~
0[!
#1751000
11
1N
1Z!
1~
1[!
#1761000
01
0N
0Z!
0~
0[!
#1771000
11
1N
1Z!
1~
1[!
#1781000
01
0N
0Z!
0~
0[!
#1791000
11
1N
1Z!
1~
1[!
#1801000
01
0N
0Z!
0~
0[!
#1811000
11
1N
1Z!
1~
1[!
#1821000
01
0N
0Z!
0~
0[!
#1831000
11
1N
1Z!
1~
1[!
#1840000
0)
0*
0+
0,
0-
0.
0/
0`
0_
0^
0]
0\
0[
0Z
0S!
0P!
0R!
0M!
0L!
0N!
0Q!
0O!
0T!
0U!
1W!
0e!
0;"
1X!
17"
x8"
x;"
#1841000
01
0N
0Z!
0~
0[!
#1851000
11
1N
1Z!
1~
1[!
#1861000
01
0N
0Z!
0~
0[!
#1871000
11
1N
1Z!
1~
1[!
#1881000
01
0N
0Z!
0~
0[!
#1891000
11
1N
1Z!
1~
1[!
#1901000
01
0N
0Z!
0~
0[!
#1911000
11
1N
1Z!
1~
1[!
#1920000
1D
1Q
1g!
x9"
#1921000
01
0N
0Z!
0~
0[!
#1931000
11
1N
1Z!
1~
1[!
#1941000
01
0N
0Z!
0~
0[!
#1951000
11
1N
1Z!
1~
1[!
#1953000
1B
1P
1=!
1(!
1Y!
1>!
0f!
1h!
0W"
0V"
0U"
0T"
0S"
0R"
0Q"
x:"
x<"
xY"
xZ"
05"
03"
01"
0."
0+"
0("
0%"
xx!
0i!
x7!
x8!
x$"
xj
xk
x:
x<
x.!
x/!
x0!
x1!
x2!
x3!
x4!
x5!
#1961000
01
0N
0Z!
0~
0[!
#1971000
11
1N
1Z!
1~
1a!
1z
16!
1[!
1O
1C
1b!
1@"
0["
0^!
1_!
#1981000
01
0N
0Z!
0~
0[!
#1991000
11
1N
1Z!
1~
1[!
0@"
1?"
1^!
#2001000
01
0N
0Z!
0~
0[!
#2011000
11
1N
1Z!
1~
1[!
1@"
1\!
0^!
0_!
#2021000
01
0N
0Z!
0~
0[!
#2031000
11
1N
1Z!
1~
1[!
1>"
0@"
0?"
1^!
#2041000
01
0N
0Z!
0~
0[!
#2051000
11
1N
1Z!
1~
1[!
1@"
0^!
1_!
#2061000
01
0N
0Z!
0~
0[!
#2071000
11
1N
1Z!
1~
1[!
0@"
1?"
1^!
#2081000
01
0N
0Z!
0~
0[!
#2091000
11
1N
1Z!
1~
1[!
1@"
0\!
1]!
0^!
0_!
#2101000
01
0N
0Z!
0~
0[!
#2111000
11
1N
1Z!
1~
1[!
0>"
1="
0@"
0?"
1^!
#2121000
01
0N
0Z!
0~
0[!
#2131000
11
1N
1Z!
1~
1[!
1@"
0^!
1_!
#2141000
01
0N
0Z!
0~
0[!
#2151000
11
1N
1Z!
1~
1[!
0@"
1?"
0`!
#2161000
01
0N
0Z!
0~
0[!
#2171000
11
1N
1Z!
1~
0a!
0z
06!
1[!
0O
0C
0b!
1["
#2181000
01
0N
0Z!
0~
0[!
#2191000
11
1N
1Z!
1~
1[!
#2201000
01
0N
0Z!
0~
0[!
#2211000
11
1N
1Z!
1~
1[!
#2221000
01
0N
0Z!
0~
0[!
#2231000
11
1N
1Z!
1~
1[!
#2232000
0B
0P
0=!
0(!
0x!
0$"
0>!
z.!
z/!
z0!
z1!
z2!
z3!
z4!
z5!
0="
0?"
0_!
0]!
1^!
1`!
#2241000
01
0N
0Z!
0~
0[!
#2251000
11
1N
1Z!
1~
1[!
#2261000
01
0N
0Z!
0~
0[!
#2271000
11
1N
1Z!
1~
1[!
#2281000
01
0N
0Z!
0~
0[!
#2291000
11
1N
1Z!
1~
1[!
#2301000
01
0N
0Z!
0~
0[!
#2311000
11
1N
1Z!
1~
1[!
#2320000
0D
0Q
0g!
09"
#2321000
01
0N
0Z!
0~
0[!
#2331000
11
1N
1Z!
1~
1[!
#2341000
01
0N
0Z!
0~
0[!
#2351000
11
1N
1Z!
1~
1[!
#2361000
01
0N
0Z!
0~
0[!
#2371000
11
1N
1Z!
1~
1[!
#2381000
01
0N
0Z!
0~
0[!
#2391000
11
1N
1Z!
1~
1[!
#2400000
1)
1*
1+
1,
1-
1.
1/
1`
1_
1^
1]
1\
1[
1Z
1S!
1P!
1R!
1M!
1L!
1N!
1Q!
1O!
1T!
1U!
0W!
1e!
1;"
0X!
07"
08"
#2401000
01
0N
0Z!
0~
0[!
#2411000
11
1N
1Z!
1~
1[!
#2421000
01
0N
0Z!
0~
0[!
#2431000
11
1N
1Z!
1~
1[!
#2441000
01
0N
0Z!
0~
0[!
#2451000
11
1N
1Z!
1~
1[!
#2461000
01
0N
0Z!
0~
0[!
#2471000
11
1N
1Z!
1~
1[!
#2481000
01
0N
0Z!
0~
0[!
#2491000
11
1N
1Z!
1~
1[!
#2501000
01
0N
0Z!
0~
0[!
#2511000
11
1B
1N
1P
1=!
1Z!
1(!
1~
0Y!
xx!
xy!
1[!
1>!
1f!
0h!
1W"
1V"
1U"
1T"
1S"
1R"
1Q"
0:"
1<"
1@"
0Y"
1Z"
0^!
1_!
15"
13"
11"
1."
1+"
1("
1%"
0x!
1i!
17!
08!
1y!
1j
0k
1:
0<
#2521000
01
0N
0Z!
0~
0[!
#2531000
11
1N
1Z!
1~
1a!
1z
16!
1[!
1O
1C
1b!
0@"
1?"
0["
1^!
#2541000
01
0N
0Z!
0~
0[!
#2551000
11
1N
1Z!
1~
1[!
1@"
1\!
0^!
0_!
#2561000
01
0N
0Z!
0~
0[!
#2571000
11
1N
1Z!
1~
1[!
1>"
0@"
0?"
1^!
#2581000
01
0N
0Z!
0~
0[!
#2591000
11
1N
1Z!
1~
1[!
1@"
0^!
1_!
#2601000
01
0N
0Z!
0~
0[!
#2611000
11
1N
1Z!
1~
1[!
0@"
1?"
1^!
#2621000
01
0N
0Z!
0~
0[!
#2631000
11
1N
1Z!
1~
1[!
1@"
0\!
1]!
0^!
0_!
#2641000
01
0N
0Z!
0~
0[!
#2651000
11
1N
1Z!
1~
1[!
0>"
1="
0@"
0?"
1^!
#2661000
01
0N
0Z!
0~
0[!
#2671000
11
1N
1Z!
1~
1[!
1@"
0^!
1_!
#2681000
01
0N
0Z!
0~
0[!
#2691000
11
1N
1Z!
1~
1[!
0@"
1?"
0`!
#2701000
01
0N
0Z!
0~
0[!
#2711000
11
1N
1Z!
1~
0a!
0z
06!
1[!
0O
0C
0b!
1["
#2721000
01
0N
0Z!
0~
0[!
#2731000
11
1N
1Z!
1~
1[!
#2741000
01
0N
0Z!
0~
0[!
#2751000
11
1N
1Z!
1~
1[!
#2761000
01
0N
0Z!
0~
0[!
