FPGA/simulation/qsim/pbi_bridge.msim.vcd
$comment
	File created using the following command:
		vcd file pbi_bridge.msim.vcd -direction
$end
$date
	Wed Apr 05 19:50:34 2017
$end
$version
	ModelSim Version 10.5b
$end
$timescale
	1ps
$end

$scope module pbi_bridge_vhd_vec_tst $end
$var wire 1 ! addr [15] $end
$var wire 1 " addr [14] $end
$var wire 1 # addr [13] $end
$var wire 1 $ addr [12] $end
$var wire 1 % addr [11] $end
$var wire 1 & addr [10] $end
$var wire 1 ' addr [9] $end
$var wire 1 ( addr [8] $end
$var wire 1 ) addr [7] $end
$var wire 1 * addr [6] $end
$var wire 1 + addr [5] $end
$var wire 1 , addr [4] $end
$var wire 1 - addr [3] $end
$var wire 1 . addr [2] $end
$var wire 1 / addr [1] $end
$var wire 1 0 addr [0] $end
$var wire 1 1 clk_50 $end
$var wire 1 2 data [7] $end
$var wire 1 3 data [6] $end
$var wire 1 4 data [5] $end
$var wire 1 5 data [4] $end
$var wire 1 6 data [3] $end
$var wire 1 7 data [2] $end
$var wire 1 8 data [1] $end
$var wire 1 9 data [0] $end
$var wire 1 : data_dir $end
$var wire 1 ; n_data_oe $end
$var wire 1 < n_reset $end
$var wire 1 = phi2 $end
$var wire 1 > phi2_early $end
$var wire 1 ? rw $end

$scope module i1 $end
$var wire 1 @ gnd $end
$var wire 1 A vcc $end
$var wire 1 B unknown $end
$var wire 1 C devoe $end
$var wire 1 D devclrn $end
$var wire 1 E devpor $end
$var wire 1 F ww_devoe $end
$var wire 1 G ww_devclrn $end
$var wire 1 H ww_devpor $end
$var wire 1 I ww_clk_50 $end
$var wire 1 J ww_phi2_early $end
$var wire 1 K ww_phi2 $end
$var wire 1 L ww_rw $end
$var wire 1 M ww_addr [15] $end
$var wire 1 N ww_addr [14] $end
$var wire 1 O ww_addr [13] $end
$var wire 1 P ww_addr [12] $end
$var wire 1 Q ww_addr [11] $end
$var wire 1 R ww_addr [10] $end
$var wire 1 S ww_addr [9] $end
$var wire 1 T ww_addr [8] $end
$var wire 1 U ww_addr [7] $end
$var wire 1 V ww_addr [6] $end
$var wire 1 W ww_addr [5] $end
$var wire 1 X ww_addr [4] $end
$var wire 1 Y ww_addr [3] $end
$var wire 1 Z ww_addr [2] $end
$var wire 1 [ ww_addr [1] $end
$var wire 1 \ ww_addr [0] $end
$var wire 1 ] ww_data_dir $end
$var wire 1 ^ ww_n_data_oe $end
$var wire 1 _ ww_n_reset $end
$var wire 1 ` \~QUARTUS_CREATED_ADC1~_CHSEL_bus\ [4] $end
$var wire 1 a \~QUARTUS_CREATED_ADC1~_CHSEL_bus\ [3] $end
$var wire 1 b \~QUARTUS_CREATED_ADC1~_CHSEL_bus\ [2] $end
$var wire 1 c \~QUARTUS_CREATED_ADC1~_CHSEL_bus\ [1] $end
$var wire 1 d \~QUARTUS_CREATED_ADC1~_CHSEL_bus\ [0] $end
$var wire 1 e \phi2_early~reg0clkctrl_INCLK_bus\ [3] $end
$var wire 1 f \phi2_early~reg0clkctrl_INCLK_bus\ [2] $end
$var wire 1 g \phi2_early~reg0clkctrl_INCLK_bus\ [1] $end
$var wire 1 h \phi2_early~reg0clkctrl_INCLK_bus\ [0] $end
$var wire 1 i \clk_50~inputclkctrl_INCLK_bus\ [3] $end
$var wire 1 j \clk_50~inputclkctrl_INCLK_bus\ [2] $end
$var wire 1 k \clk_50~inputclkctrl_INCLK_bus\ [1] $end
$var wire 1 l \clk_50~inputclkctrl_INCLK_bus\ [0] $end
$var wire 1 m \data[2]~17clkctrl_INCLK_bus\ [3] $end
$var wire 1 n \data[2]~17clkctrl_INCLK_bus\ [2] $end
$var wire 1 o \data[2]~17clkctrl_INCLK_bus\ [1] $end
$var wire 1 p \data[2]~17clkctrl_INCLK_bus\ [0] $end
$var wire 1 q \phi2~inputclkctrl_INCLK_bus\ [3] $end
$var wire 1 r \phi2~inputclkctrl_INCLK_bus\ [2] $end
$var wire 1 s \phi2~inputclkctrl_INCLK_bus\ [1] $end
$var wire 1 t \phi2~inputclkctrl_INCLK_bus\ [0] $end
$var wire 1 u \n_reset~input_o\ $end
$var wire 1 v \~QUARTUS_CREATED_GND~I_combout\ $end
$var wire 1 w \~QUARTUS_CREATED_UNVM~~busy\ $end
$var wire 1 x \~QUARTUS_CREATED_ADC1~~eoc\ $end
$var wire 1 y \data[0]~output_o\ $end
$var wire 1 z \data[1]~output_o\ $end
$var wire 1 { \data[2]~output_o\ $end
$var wire 1 | \data[3]~output_o\ $end
$var wire 1 } \data[4]~output_o\ $end
$var wire 1 ~ \data[5]~output_o\ $end
$var wire 1 !! \data[6]~output_o\ $end
$var wire 1 "! \data[7]~output_o\ $end
$var wire 1 #! \phi2_early~output_o\ $end
$var wire 1 $! \data_dir~output_o\ $end
$var wire 1 %! \n_data_oe~output_o\ $end
$var wire 1 &! \phi2~input_o\ $end
$var wire 1 '! \addr[13]~input_o\ $end
$var wire 1 (! \addr[15]~input_o\ $end
$var wire 1 )! \addr[14]~input_o\ $end
$var wire 1 *! \addr[12]~input_o\ $end
$var wire 1 +! \Equal2~0_combout\ $end
$var wire 1 ,! \addr[8]~input_o\ $end
$var wire 1 -! \addr[10]~input_o\ $end
$var wire 1 .! \addr[9]~input_o\ $end
$var wire 1 /! \LessThan4~0_combout\ $end
$var wire 1 0! \addr[11]~input_o\ $end
$var wire 1 1! \addr[0]~input_o\ $end
$var wire 1 2! \addr[3]~input_o\ $end
$var wire 1 3! \addr[2]~input_o\ $end
$var wire 1 4! \addr[4]~input_o\ $end
$var wire 1 5! \LessThan1~0_combout\ $end
$var wire 1 6! \addr[1]~input_o\ $end
$var wire 1 7! \addr[6]~input_o\ $end
$var wire 1 8! \addr[7]~input_o\ $end
$var wire 1 9! \addr[5]~input_o\ $end
$var wire 1 :! \Equal2~1_combout\ $end
$var wire 1 ;! \Equal2~2_combout\ $end
$var wire 1 <! \process_1~1_combout\ $end
$var wire 1 =! \dev_reg_act~0_combout\ $end
$var wire 1 >! \dev_reg_act~feeder_combout\ $end
$var wire 1 ?! \dev_reg_act~q\ $end
$var wire 1 @! \clk_50~input_o\ $end
$var wire 1 A! \clk_50~inputclkctrl_outclk\ $end
$var wire 1 B! \clk_counter[1]~2_combout\ $end
$var wire 1 C! \phi2~inputclkctrl_outclk\ $end
$var wire 1 D! \clk_counter[2]~1_combout\ $end
$var wire 1 E! \clk_counter[0]~3_combout\ $end
$var wire 1 F! \clk_counter[3]~0_combout\ $end
$var wire 1 G! \Equal0~0_combout\ $end
$var wire 1 H! \phi2_early~reg0_q\ $end
$var wire 1 I! \phi2_early~reg0clkctrl_outclk\ $end
$var wire 1 J! \data[7]~input_o\ $end
$var wire 1 K! \hw_sel[7]~feeder_combout\ $end
$var wire 1 L! \Equal2~3_combout\ $end
$var wire 1 M! \hw_sel_act~q\ $end
$var wire 1 N! \rw~input_o\ $end
$var wire 1 O! \rw_latch~q\ $end
$var wire 1 P! \hw_sel[3]~0_combout\ $end
$var wire 1 Q! \data[5]~input_o\ $end
$var wire 1 R! \hw_sel[5]~feeder_combout\ $end
$var wire 1 S! \data[6]~input_o\ $end
$var wire 1 T! \data[4]~input_o\ $end
$var wire 1 U! \hw_sel[4]~feeder_combout\ $end
$var wire 1 V! \Equal1~1_combout\ $end
$var wire 1 W! \data[2]~input_o\ $end
$var wire 1 X! \hw_sel[2]~feeder_combout\ $end
$var wire 1 Y! \data[1]~input_o\ $end
$var wire 1 Z! \hw_sel[1]~feeder_combout\ $end
$var wire 1 [! \data[0]~input_o\ $end
$var wire 1 \! \data[3]~input_o\ $end
$var wire 1 ]! \hw_sel[3]~feeder_combout\ $end
$var wire 1 ^! \Equal1~0_combout\ $end
$var wire 1 _! \process_1~8_combout\ $end
$var wire 1 `! \data[2]~18_combout\ $end
$var wire 1 a! \process_1~0_combout\ $end
$var wire 1 b! \dev_ram_act~feeder_combout\ $end
$var wire 1 c! \dev_ram_act~q\ $end
$var wire 1 d! \addr_latch[8]~feeder_combout\ $end
$var wire 1 e! \data[0]~16_combout\ $end
$var wire 1 f! \process_1~2_combout\ $end
$var wire 1 g! \process_1~3_combout\ $end
$var wire 1 h! \process_1~4_combout\ $end
$var wire 1 i! \dev_rom_act~0_combout\ $end
$var wire 1 j! \dev_rom_act~q\ $end
$var wire 1 k! \data[2]~17_combout\ $end
$var wire 1 l! \data[2]~17clkctrl_outclk\ $end
$var wire 1 m! \data[0]$latch~combout\ $end
$var wire 1 n! \data[7]_424~combout\ $end
$var wire 1 o! \data[1]~19_combout\ $end
$var wire 1 p! \data[1]$latch~combout\ $end
$var wire 1 q! \addr_latch[10]~feeder_combout\ $end
$var wire 1 r! \data[2]~20_combout\ $end
$var wire 1 s! \data[2]$latch~combout\ $end
$var wire 1 t! \addr_latch[11]~feeder_combout\ $end
$var wire 1 u! \data[3]~21_combout\ $end
$var wire 1 v! \data[3]$latch~combout\ $end
$var wire 1 w! \addr_latch[12]~feeder_combout\ $end
$var wire 1 x! \data[4]~22_combout\ $end
$var wire 1 y! \data[4]$latch~combout\ $end
$var wire 1 z! \addr_latch[13]~feeder_combout\ $end
$var wire 1 {! \data[5]~23_combout\ $end
$var wire 1 |! \data[5]$latch~combout\ $end
$var wire 1 }! \data[6]~24_combout\ $end
$var wire 1 ~! \data[6]$latch~combout\ $end
$var wire 1 !" \addr_latch[15]~feeder_combout\ $end
$var wire 1 "" \data[7]~25_combout\ $end
$var wire 1 #" \data[7]$latch~combout\ $end
$var wire 1 $" \process_1~5_combout\ $end
$var wire 1 %" \process_1~6_combout\ $end
$var wire 1 &" \data_dir~0_combout\ $end
$var wire 1 '" \data_dir~reg0_q\ $end
$var wire 1 (" \process_1~7_combout\ $end
$var wire 1 )" \n_data_oe~reg0_q\ $end
$var wire 1 *" clk_counter [3] $end
$var wire 1 +" clk_counter [2] $end
$var wire 1 ," clk_counter [1] $end
$var wire 1 -" clk_counter [0] $end
$var wire 1 ." hw_sel [7] $end
$var wire 1 /" hw_sel [6] $end
$var wire 1 0" hw_sel [5] $end
$var wire 1 1" hw_sel [4] $end
$var wire 1 2" hw_sel [3] $end
$var wire 1 3" hw_sel [2] $end
$var wire 1 4" hw_sel [1] $end
$var wire 1 5" hw_sel [0] $end
$var wire 1 6" addr_latch [15] $end
$var wire 1 7" addr_latch [14] $end
$var wire 1 8" addr_latch [13] $end
$var wire 1 9" addr_latch [12] $end
$var wire 1 :" addr_latch [11] $end
$var wire 1 ;" addr_latch [10] $end
$var wire 1 <" addr_latch [9] $end
$var wire 1 =" addr_latch [8] $end
$var wire 1 >" addr_latch [7] $end
$var wire 1 ?" addr_latch [6] $end
$var wire 1 @" addr_latch [5] $end
$var wire 1 A" addr_latch [4] $end
$var wire 1 B" addr_latch [3] $end
$var wire 1 C" addr_latch [2] $end
$var wire 1 D" addr_latch [1] $end
$var wire 1 E" addr_latch [0] $end
$var wire 1 F" \ALT_INV_phi2_early~reg0clkctrl_outclk\ $end
$var wire 1 G" \ALT_INV_n_data_oe~reg0_q\ $end
$var wire 1 H" \ALT_INV_data_dir~reg0_q\ $end
$upscope $end
$upscope $end
$enddefinitions $end
#0
$dumpvars
11
1:
1;
1<
0=
0>
0?
0@
1A
xB
1C
1D
1E
1F
1G
1H
1I
0J
0K
0L
1]
1^
1_
1u
0v
zw
zx
zy
zz
z{
z|
z}
z~
z!!
z"!
0#!
1$!
1%!
0&!
0'!
0(!
0)!
0*!
0+!
0,!
0-!
0.!
1/!
00!
01!
02!
03!
04!
05!
06!
07!
08!
09!
0:!
0;!
0<!
0=!
0>!
0?!
1@!
1A!
0B!
0C!
0D!
1E!
0F!
1G!
0H!
0I!
zJ!
xK!
0L!
0M!
0N!
0O!
0P!
zQ!
xR!
zS!
zT!
xU!
0V!
zW!
xX!
zY!
xZ!
z[!
z\!
x]!
1^!
0_!
1`!
0a!
0b!
0c!
0d!
0e!
1f!
0g!
0h!
0i!
0j!
0k!
0l!
0m!
0n!
0o!
1p!
0q!
0r!
0s!
0t!
0u!
0v!
0w!
0x!
0y!
0z!
0{!
1|!
0}!
0~!
0!"
0""
0#"
0$"
0%"
0&"
0'"
0("
0)"
1F"
1G"
1H"
0!
0"
0#
0$
0%
0&
0'
0(
0)
0*
0+
0,
0-
0.
0/
00
z2
z3
z4
z5
z6
z7
z8
z9
0M
0N
0O
0P
0Q
0R
0S
0T
0U
0V
0W
0X
0Y
0Z
0[
0\
0*"
0+"
0,"
0-"
0."
0/"
00"
01"
02"
03"
04"
05"
06"
07"
08"
09"
0:"
0;"
0<"
0="
0>"
0?"
0@"
0A"
0B"
0C"
0D"
0E"
1i
1j
1k
1l
1q
1r
1s
0t
1e
1f
1g
0h
1m
1n
1o
0p
0`
0a
0b
0c
0d
$end
#1000
01
0I
0@!
0l
0A!
#11000
11
1I
1@!
1l
1A!
#21000
01
0I
0@!
0l
0A!
#31000
11
1I
1@!
1l
1A!
#41000
01
0I
0@!
0l
0A!
#51000
11
1I
1@!
1l
1A!
#61000
01
0I
0@!
0l
0A!
#71000
11
1I
1@!
1l
1A!
#80000
0<
0_
0u
#81000
01
0I
0@!
0l
0A!
#91000
11
1I
1@!
1l
1A!
#101000
01
0I
0@!
0l
0A!
#111000
11
1I
1@!
1l
1A!
#121000
01
0I
0@!
0l
0A!
#131000
11
1I
1@!
1l
1A!
#141000
01
0I
0@!
0l
0A!
#151000
11
1I
1@!
1l
1A!
#161000
01
0I
0@!
0l
0A!
#171000
11
1I
1@!
1l
1A!
#181000
01
0I
0@!
0l
0A!
#191000
11
1I
1@!
1l
1A!
#201000
01
0I
0@!
0l
0A!
#211000
11
1I
1@!
1l
1A!
#221000
01
0I
0@!
0l
0A!
#231000
11
1I
1@!
1l
1A!
#241000
01
0I
0@!
0l
0A!
#251000
11
1I
1@!
1l
1A!
#261000
01
0I
0@!
0l
0A!
#271000
11
1I
1@!
1l
1A!
#279000
1=
1K
1&!
1t
1C!
#281000
01
0I
0@!
0l
0A!
#291000
11
1I
1@!
1l
1H!
1h
1#!
1A!
1J
1>
1I!
1-"
0F"
1B!
0E!
#301000
01
0I
0@!
0l
0A!
#311000
11
1I
1@!
1l
1A!
1,"
0-"
1E!
#321000
01
0I
0@!
0l
0A!
#331000
11
1I
1@!
1l
1A!
1-"
0B!
1D!
0E!
#341000
01
0I
0@!
0l
0A!
#351000
11
1I
1@!
1l
1A!
0,"
1+"
0-"
1E!
#361000
01
0I
0@!
0l
0A!
#371000
11
1I
1@!
1l
1A!
1-"
1B!
0E!
#381000
01
0I
0@!
0l
0A!
#391000
11
1I
1@!
1l
1A!
1,"
0-"
1E!
#401000
01
0I
0@!
0l
0A!
#411000
11
1I
1@!
1l
1A!
1-"
0B!
0D!
0E!
1F!
#421000
01
0I
0@!
0l
0A!
#431000
11
1I
1@!
1l
1A!
0,"
0+"
0-"
1*"
1E!
#441000
01
0I
0@!
0l
0A!
#451000
11
1I
1@!
1l
1A!
1-"
1B!
0E!
#461000
01
0I
0@!
0l
0A!
#471000
11
1I
1@!
1l
1A!
1,"
0-"
1E!
#481000
01
0I
0@!
0l
0A!
#491000
11
1I
1@!
1l
1A!
1-"
0B!
1D!
0E!
#501000
01
0I
0@!
0l
0A!
#511000
11
1I
1@!
1l
1A!
0,"
1+"
0-"
0G!
#521000
01
0I
0@!
0l
0A!
#531000
11
1I
1@!
1l
0H!
0h
0#!
1A!
0J
0>
0I!
1F"
#541000
01
0I
0@!
0l
0A!
#551000
11
1I
1@!
1l
1A!
#558000
0=
0K
0&!
0t
0C!
0+"
0*"
0D!
1E!
0F!
1G!
#561000
01
0I
0@!
0l
0A!
#571000
11
1I
1@!
1l
1A!
#581000
01
0I
0@!
0l
0A!
#591000
11
1I
1@!
1l
1A!
#601000
01
0I
0@!
0l
0A!
#611000
11
1I
1@!
1l
1A!
#621000
01
0I
0@!
0l
0A!
#631000
11
1I
1@!
1l
1A!
#641000
01
0I
0@!
0l
0A!
#651000
11
1I
1@!
1l
1A!
#661000
01
0I
0@!
0l
0A!
#671000
11
1I
1@!
1l
1A!
#681000
01
0I
0@!
0l
0A!
#691000
11
1I
1@!
1l
1A!
#701000
01
0I
0@!
0l
0A!
#711000
11
1I
1@!
1l
1A!
#721000
01
0I
0@!
0l
0A!
#731000
11
1I
1@!
1l
1A!
#741000
01
0I
0@!
0l
0A!
#751000
11
1I
1@!
1l
1A!
#761000
01
0I
0@!
0l
0A!
#771000
11
1I
1@!
1l
1A!
#781000
01
0I
0@!
0l
0A!
#791000
11
1I
1@!
1l
1A!
#801000
01
0I
0@!
0l
0A!
#811000
11
1I
1@!
1l
1A!
#821000
01
0I
0@!
0l
0A!
#831000
11
1I
1@!
1l
1A!
#837000
1=
1K
1&!
1t
1C!
#841000
01
0I
0@!
0l
0A!
#851000
11
1I
1@!
1l
1H!
1h
1#!
1A!
1J
1>
1I!
1-"
0F"
1B!
0E!
#861000
01
0I
0@!
0l
0A!
#871000
11
1I
1@!
1l
1A!
1,"
0-"
1E!
#881000
01
0I
0@!
0l
0A!
#891000
11
1I
1@!
1l
1A!
1-"
0B!
1D!
0E!
#901000
01
0I
0@!
0l
0A!
#911000
11
1I
1@!
1l
1A!
0,"
1+"
0-"
1E!
#921000
01
0I
0@!
0l
0A!
#931000
11
1I
1@!
1l
1A!
1-"
1B!
0E!
#941000
01
0I
0@!
0l
0A!
#951000
11
1I
1@!
1l
1A!
1,"
0-"
1E!
#960000
1<
1_
1u
#961000
01
0I
0@!
0l
0A!
#971000
11
1I
1@!
1l
1A!
1-"
0B!
0D!
0E!
1F!
#981000
01
0I
0@!
0l
0A!
#991000
11
1I
1@!
1l
1A!
0,"
0+"
0-"
1*"
1E!
#1001000
01
0I
0@!
0l
0A!
#1011000
11
1I
1@!
1l
1A!
1-"
1B!
0E!
#1021000
01
0I
0@!
0l
0A!
#1031000
11
1I
1@!
1l
1A!
1,"
0-"
1E!
#1041000
01
0I
0@!
0l
0A!
#1051000
11
1I
1@!
1l
1A!
1-"
0B!
1D!
0E!
#1061000
01
0I
0@!
0l
0A!
#1071000
11
1I
1@!
1l
1A!
0,"
1+"
0-"
0G!
#1081000
01
0I
0@!
0l
0A!
#1091000
11
1I
1@!
1l
0H!
0h
0#!
1A!
0J
0>
0I!
1F"
#1101000
01
0I
0@!
0l
0A!
#1111000
11
1I
1@!
1l
1A!
#1116000
0=
0K
0&!
0t
0C!
0+"
0*"
0D!
1E!
0F!
1G!
#1121000
01
0I
0@!
0l
0A!
#1131000
11
1I
1@!
1l
1A!
#1141000
01
0I
0@!
0l
0A!
#1151000
11
1I
1@!
1l
1A!
#1160000
1!
1"
1$
1(
1)
1*
1+
1,
1-
1.
1/
10
1\
1[
1Z
1Y
1X
1W
1V
1U
1T
1P
1N
1M
1(!
1)!
1*!
1,!
18!
17!
19!
14!
12!
13!
16!
11!
15!
1:!
1<!
1d!
0f!
1w!
1+!
1!"
1=!
1$"
1;!
0<!
1L!
1>!
1("
0=!
0$"
0>!
#1161000
01
0I
0@!
0l
0A!
#1171000
11
1I
1@!
1l
1A!
#1181000
01
0I
0@!
0l
0A!
#1191000
11
1I
1@!
1l
1A!
#1201000
01
0I
0@!
0l
0A!
#1211000
11
1I
1@!
1l
1A!
#1221000
01
0I
0@!
0l
0A!
#1231000
11
1I
1@!
1l
1A!
#1241000
01
0I
0@!
0l
0A!
#1251000
11
1I
1@!
1l
1A!
#1261000
01
0I
0@!
0l
0A!
#1271000
11
1I
1@!
1l
1A!
#1281000
01
0I
0@!
0l
0A!
#1291000
11
1I
1@!
1l
1A!
#1301000
01
0I
0@!
0l
0A!
#1311000
11
1I
1@!
1l
1A!
#1321000
01
0I
0@!
0l
0A!
#1331000
11
1I
1@!
1l
1A!
#1341000
01
0I
0@!
0l
0A!
#1351000
11
1I
1@!
1l
1A!
#1361000
01
0I
0@!
0l
0A!
#1371000
11
1I
1@!
1l
1A!
#1381000
01
0I
0@!
0l
0A!
#1391000
11
1I
1@!
1l
1A!
#1395000
1=
1K
1&!
1t
1C!
1M!
1E"
1="
1D"
1C"
1B"
1A"
19"
1@"
17"
1?"
1>"
16"
1)"
0G"
1""
1}!
1{!
1x!
1u!
1r!
1o!
1e!
1P!
0%!
0^
0;
#1401000
01
0I
0@!
0l
0A!
#1411000
11
1I
1@!
1l
1H!
1h
1#!
1A!
1J
1>
1I!
1-"
0F"
1B!
0E!
#1421000
01
0I
0@!
0l
0A!
#1431000
11
1I
1@!
1l
1A!
1,"
0-"
1E!
#1441000
01
0I
0@!
0l
0A!
#1451000
11
1I
1@!
1l
1A!
1-"
0B!
1D!
0E!
#1461000
01
0I
0@!
0l
0A!
#1471000
11
1I
1@!
1l
1A!
0,"
1+"
0-"
1E!
#1481000
01
0I
0@!
0l
0A!
#1491000
11
1I
1@!
1l
1A!
1-"
1B!
0E!
#1501000
01
0I
0@!
0l
0A!
#1511000
11
1I
1@!
1l
1A!
1,"
0-"
1E!
#1521000
01
0I
0@!
0l
0A!
#1531000
11
1I
1@!
1l
1A!
1-"
0B!
0D!
0E!
1F!
#1541000
01
0I
0@!
0l
0A!
#1551000
11
1I
1@!
1l
1A!
0,"
0+"
0-"
1*"
1E!
#1561000
01
0I
0@!
0l
0A!
#1571000
11
1I
1@!
1l
1A!
1-"
1B!
0E!
#1581000
01
0I
0@!
0l
0A!
#1591000
11
1I
1@!
1l
1A!
1,"
0-"
1E!
#1600000
12
03
04
05
06
07
08
09
0[!
0Y!
0W!
0\!
0T!
0Q!
0S!
1J!
1K!
0R!
0U!
0]!
0X!
0Z!
#1601000
01
0I
0@!
0l
0A!
#1611000
11
1I
1@!
1l
1A!
1-"
0B!
1D!
0E!
#1621000
01
0I
0@!
0l
0A!
#1631000
11
1I
1@!
1l
1A!
0,"
1+"
0-"
0G!
#1641000
01
0I
0@!
0l
0A!
#1651000
11
1I
1@!
1l
0H!
0h
0#!
1A!
0J
0>
0I!
1F"
1."
1V!
#1661000
01
0I
0@!
0l
0A!
#1671000
11
1I
1@!
1l
1A!
#1674000
0=
0K
0&!
0t
0C!
0+"
0*"
0D!
1E!
0F!
1G!
#1681000
01
0I
0@!
0l
0A!
#1691000
11
1I
1@!
1l
1A!
#1701000
01
0I
0@!
0l
0A!
#1711000
11
1I
1@!
1l
1A!
#1721000
01
0I
0@!
0l
0A!
#1731000
11
1I
1@!
1l
1A!
#1741000
01
0I
0@!
0l
0A!
#1751000
11
1I
1@!
1l
1A!
#1760000
z2
z3
z4
z5
z6
z7
z8
z9
z[!
zY!
zW!
z\!
zT!
zQ!
zS!
zJ!
xK!
xR!
xU!
x]!
xX!
xZ!
#1761000
01
0I
0@!
0l
0A!
#1771000
11
1I
1@!
1l
1A!
#1781000
01
0I
0@!
0l
0A!
#1791000
11
1I
1@!
1l
1A!
#1801000
01
0I
0@!
0l
0A!
#1811000
11
1I
1@!
1l
1A!
#1821000
01
0I
0@!
0l
0A!
#1831000
11
1I
1@!
1l
1A!
#1840000
0)
0*
0+
0,
0-
0.
0/
0[
0Z
0Y
0X
0W
0V
0U
08!
07!
09!
04!
02!
03!
06!
05!
0:!
0;!
1<!
0L!
0("
1=!
1$"
1%"
1>!
1("
#1841000
01
0I
0@!
0l
0A!
#1851000
11
1I
1@!
1l
1A!
#1861000
01
0I
0@!
0l
0A!
#1871000
11
1I
1@!
1l
1A!
#1881000
01
0I
0@!
0l
0A!
#1891000
11
1I
1@!
1l
1A!
#1901000
01
0I
0@!
0l
0A!
#1911000
11
1I
1@!
1l
1A!
#1920000
1?
1L
1N!
1&"
#1921000
01
0I
0@!
0l
0A!
#1931000
11
1I
1@!
1l
1A!
#1941000
01
0I
0@!
0l
0A!
#1951000
11
1I
1@!
1l
1A!
#1953000
1=
1K
1&!
1t
1?!
1C!
0M!
1O!
0D"
0C"
0B"
0A"
0@"
0?"
0>"
1'"
0H"
0""
0}!
0{!
0x!
0u!
0r!
0o!
1_!
0P!
0$!
1n!
0]
0:
0y
1z
0{
0|
0}
1~
0!!
0"!
09
18
07
06
05
14
03
02
0J!
0S!
1Q!
0T!
0\!
0W!
1Y!
0[!
1Z!
0X!
0]!
0U!
1R!
0K!
#1961000
01
0I
0@!
0l
0A!
#1971000
11
1I
1@!
1l
1H!
1h
1#!
1A!
1J
1>
1I!
1-"
0F"
1B!
0E!
#1981000
01
0I
0@!
0l
0A!
#1991000
11
1I
1@!
1l
1A!
1,"
0-"
1E!
#2001000
01
0I
0@!
0l
0A!
#2011000
11
1I
1@!
1l
1A!
1-"
0B!
1D!
0E!
#2021000
01
0I
0@!
0l
0A!
#2031000
11
1I
1@!
1l
1A!
0,"
1+"
0-"
1E!
#2041000
01
0I
0@!
0l
0A!
#2051000
11
1I
1@!
1l
1A!
1-"
1B!
0E!
#2061000
01
0I
0@!
0l
0A!
#2071000
11
1I
1@!
1l
1A!
1,"
0-"
1E!
#2081000
01
0I
0@!
0l
0A!
#2091000
11
1I
1@!
1l
1A!
1-"
0B!
0D!
0E!
1F!
#2101000
01
0I
0@!
0l
0A!
#2111000
11
1I
1@!
1l
1A!
0,"
0+"
0-"
1*"
1E!
#2121000
01
0I
0@!
0l
0A!
#2131000
11
1I
1@!
1l
1A!
1-"
1B!
0E!
#2141000
01
0I
0@!
0l
0A!
#2151000
11
1I
1@!
1l
1A!
1,"
0-"
1E!
#2161000
01
0I
0@!
0l
0A!
#2171000
11
1I
1@!
1l
1A!
1-"
0B!
1D!
0E!
#2181000
01
0I
0@!
0l
0A!
#2191000
11
1I
1@!
1l
1A!
0,"
1+"
0-"
0G!
#2201000
01
0I
0@!
0l
0A!
#2211000
11
1I
1@!
1l
0H!
0h
0#!
1A!
0J
0>
0I!
1F"
#2221000
01
0I
0@!
0l
0A!
#2231000
11
1I
1@!
1l
1A!
#2232000
0=
0K
0&!
0t
0_!
0n!
0C!
zy
zz
z{
z|
z}
z~
z!!
z"!
0+"
0*"
z9
z8
z7
z6
z5
z4
z3
z2
zJ!
zS!
zQ!
zT!
z\!
zW!
zY!
z[!
0D!
1E!
0F!
1G!
xZ!
xX!
x]!
xU!
xR!
xK!
#2241000
01
0I
0@!
0l
0A!
#2251000
11
1I
1@!
1l
1A!
#2261000
01
0I
0@!
0l
0A!
#2271000
11
1I
1@!
1l
1A!
#2281000
01
0I
0@!
0l
0A!
#2291000
11
1I
1@!
1l
1A!
#2301000
01
0I
0@!
0l
0A!
#2311000
11
1I
1@!
1l
1A!
#2320000
0?
0L
0N!
0&"
#2321000
01
0I
0@!
0l
0A!
#2331000
11
1I
1@!
1l
1A!
#2341000
01
0I
0@!
0l
0A!
#2351000
11
1I
1@!
1l
1A!
#2361000
01
0I
0@!
0l
0A!
#2371000
11
1I
1@!
1l
1A!
#2381000
01
0I
0@!
0l
0A!
#2391000
11
1I
1@!
1l
1A!
#2400000
1)
1*
1+
1,
1-
1.
1/
1[
1Z
1Y
1X
1W
1V
1U
18!
17!
19!
14!
12!
13!
16!
15!
1:!
1;!
0<!
1L!
0=!
0$"
0%"
0>!
#2401000
01
0I
0@!
0l
0A!
#2411000
11
1I
1@!
1l
1A!
#2421000
01
0I
0@!
0l
0A!
#2431000
11
1I
1@!
1l
1A!
#2441000
01
0I
0@!
0l
0A!
#2451000
11
1I
1@!
1l
1A!
#2461000
01
0I
0@!
0l
0A!
#2471000
11
1I
1@!
1l
1A!
#2481000
01
0I
0@!
0l
0A!
#2491000
11
1I
1@!
1l
1A!
#2501000
01
0I
0@!
0l
0A!
#2511000
11
1=
1I
1K
1&!
1@!
1t
1l
0?!
1_!
0`!
1A!
1C!
1M!
0O!
1D"
1C"
1B"
1A"
1@"
1?"
1>"
0'"
1-"
1H"
1B!
0E!
1""
1}!
1{!
1x!
1u!
1r!
1o!
0_!
1P!
1$!
1`!
1]
1:
#2521000
01
0I
0@!
0l
0A!
#2531000
11
1I
1@!
1l
1H!
1h
1#!
1A!
1J
1>
1I!
1,"
0-"
0F"
1E!
#2541000
01
0I
0@!
0l
0A!
#2551000
11
1I
1@!
1l
1A!
1-"
0B!
1D!
0E!
#2561000
01
0I
0@!
0l
0A!
#2571000
11
1I
1@!
1l
1A!
0,"
1+"
0-"
1E!
#2581000
01
0I
0@!
0l
0A!
#2591000
11
1I
1@!
1l
1A!
1-"
1B!
0E!
#2601000
01
0I
0@!
0l
0A!
#2611000
11
1I
1@!
1l
1A!
1,"
0-"
1E!
#2621000
01
0I
0@!
0l
0A!
#2631000
11
1I
1@!
1l
1A!
1-"
0B!
0D!
0E!
1F!
#2641000
01
0I
0@!
0l
0A!
#2651000
11
1I
1@!
1l
1A!
0,"
0+"
0-"
1*"
1E!
#2661000
01
0I
0@!
0l
0A!
#2671000
11
1I
1@!
1l
1A!
1-"
1B!
0E!
#2681000
01
0I
0@!
0l
0A!
#2691000
11
1I
1@!
1l
1A!
1,"
0-"
1E!
#2701000
01
0I
0@!
0l
0A!
#2711000
11
1I
1@!
1l
1A!
1-"
0B!
1D!
0E!
#2720000
02
03
04
05
06
07
08
19
1[!
0Y!
0W!
0\!
0T!
0Q!
0S!
0J!
0K!
0R!
0U!
0]!
0X!
0Z!
#2721000
01
0I
0@!
0l
0A!
#2731000
11
1I
1@!
1l
1A!
0,"
1+"
0-"
0G!
#2741000
01
0I
0@!
0l
0A!
#2751000
11
1I
1@!
1l
0H!
0h
0#!
1A!
0J
0>
0I!
1F"
0."
15"
0^!
0V!
#2761000
01
0I
0@!
0l
0A!
#2771000
11
1I
1@!
1l
1A!
#2781000
01
0I
0@!
0l
0A!
#2790000
0=
0K
0&!
0t
0C!
0+"
0*"
0D!
1E!
0F!
1G!
#2791000
11
1I
1@!
1l
1A!
#2801000
01
0I
0@!
0l
0A!
#2811000
11
1I
1@!
1l
1A!
#2821000
01
0I
0@!
0l
0A!
